^C:\USERS\XAVIE\SOURCE\REPOS\VKMASSIVE\BUILD\RELEASE\OBJ\VK-MASSIVE\AABB.OBJ|C:\USERS\XAVIE\SOURCE\REPOS\VKMASSIVE\BUILD\RELEASE\OBJ\VK-MASSIVE\BUFFER.OBJ|C:\USERS\XAVIE\SOURCE\REPOS\VKMASSIVE\BUILD\RELEASE\OBJ\VK-MASSIVE\BVHNODE.OBJ|C:\USERS\XAVIE\SOURCE\REPOS\VKMASSIVE\BUILD\RELEASE\OBJ\VK-MASSIVE\CAMERA.OBJ|C:\USERS\XAVIE\SOURCE\REPOS\VKMASSIVE\BUILD\RELEASE\OBJ\VK-MASSIVE\CHECKERTEXTURE.OBJ|C:\USERS\XAVIE\SOURCE\REPOS\VKMASSIVE\BUILD\RELEASE\OBJ\VK-MASSIVE\CONSTANTTEXTURE.OBJ|C:\USERS\XAVIE\SOURCE\REPOS\VKMASSIVE\BUILD\RELEASE\OBJ\VK-MASSIVE\DESCRIPTORSERVICE.OBJ|C:\USERS\XAVIE\SOURCE\REPOS\VKMASSIVE\BUILD\RELEASE\OBJ\VK-MASSIVE\DEVICE.OBJ|C:\USERS\XAVIE\SOURCE\REPOS\VKMASSIVE\BUILD\RELEASE\OBJ\VK-MASSIVE\DIELECTRIC.OBJ|C:\USERS\XAVIE\SOURCE\REPOS\VKMASSIVE\BUILD\RELEASE\OBJ\VK-MASSIVE\DIFFUSELIGHT.OBJ|C:\USERS\XAVIE\SOURCE\REPOS\VKMASSIVE\BUILD\RELEASE\OBJ\VK-MASSIVE\HITTABLE.OBJ|C:\USERS\XAVIE\SOURCE\REPOS\VKMASSIVE\BUILD\RELEASE\OBJ\VK-MASSIVE\HITTABLELIST.OBJ|C:\USERS\XAVIE\SOURCE\REPOS\VKMASSIVE\BUILD\RELEASE\OBJ\VK-MASSIVE\IMAGESERVICE.OBJ|C:\USERS\XAVIE\SOURCE\REPOS\VKMASSIVE\BUILD\RELEASE\OBJ\VK-MASSIVE\IMAGETEXTURE.OBJ|C:\USERS\XAVIE\SOURCE\REPOS\VKMASSIVE\BUILD\RELEASE\OBJ\VK-MASSIVE\MAIN.OBJ|C:\USERS\XAVIE\SOURCE\REPOS\VKMASSIVE\BUILD\RELEASE\OBJ\VK-MASSIVE\MATERIAL.OBJ|C:\USERS\XAVIE\SOURCE\REPOS\VKMASSIVE\BUILD\RELEASE\OBJ\VK-MASSIVE\MINIZ.OBJ|C:\USERS\XAVIE\SOURCE\REPOS\VKMASSIVE\BUILD\RELEASE\OBJ\VK-MASSIVE\MODEL.OBJ|C:\USERS\XAVIE\SOURCE\REPOS\VKMASSIVE\BUILD\RELEASE\OBJ\VK-MASSIVE\MODELFACTORY.OBJ|C:\USERS\XAVIE\SOURCE\REPOS\VKMASSIVE\BUILD\RELEASE\OBJ\VK-MASSIVE\MODELLOADER.OBJ|C:\USERS\XAVIE\SOURCE\REPOS\VKMASSIVE\BUILD\RELEASE\OBJ\VK-MASSIVE\NODE.OBJ|C:\USERS\XAVIE\SOURCE\REPOS\VKMASSIVE\BUILD\RELEASE\OBJ\VK-MASSIVE\OFBX.OBJ|C:\USERS\XAVIE\SOURCE\REPOS\VKMASSIVE\BUILD\RELEASE\OBJ\VK-MASSIVE\QUEUEFAMILYINDICES.OBJ|C:\USERS\XAVIE\SOURCE\REPOS\VKMASSIVE\BUILD\RELEASE\OBJ\VK-MASSIVE\RAY.OBJ|C:\USERS\XAVIE\SOURCE\REPOS\VKMASSIVE\BUILD\RELEASE\OBJ\VK-MASSIVE\RTTRIANGLE.OBJ|C:\USERS\XAVIE\SOURCE\REPOS\VKMASSIVE\BUILD\RELEASE\OBJ\VK-MASSIVE\SCENEGRAPH.OBJ|C:\USERS\XAVIE\SOURCE\REPOS\VKMASSIVE\BUILD\RELEASE\OBJ\VK-MASSIVE\SPHERE.OBJ|C:\USERS\XAVIE\SOURCE\REPOS\VKMASSIVE\BUILD\RELEASE\OBJ\VK-MASSIVE\SWAPCHAIN.OBJ|C:\USERS\XAVIE\SOURCE\REPOS\VKMASSIVE\BUILD\RELEASE\OBJ\VK-MASSIVE\TRANSFORMATION.OBJ|C:\USERS\XAVIE\SOURCE\REPOS\VKMASSIVE\BUILD\RELEASE\OBJ\VK-MASSIVE\UTILS.OBJ|C:\USERS\XAVIE\SOURCE\REPOS\VKMASSIVE\BUILD\RELEASE\OBJ\VK-MASSIVE\UUIDFACTORY.OBJ|C:\USERS\XAVIE\SOURCE\REPOS\VKMASSIVE\BUILD\RELEASE\OBJ\VK-MASSIVE\VERTEX.OBJ|C:\USERS\XAVIE\SOURCE\REPOS\VKMASSIVE\BUILD\RELEASE\OBJ\VK-MASSIVE\VIEWPORT.OBJ|C:\USERS\XAVIE\SOURCE\REPOS\VKMASSIVE\BUILD\RELEASE\OBJ\VK-MASSIVE\WIN_DELAY_LOAD_HOOK.OBJ|C:\USERS\XAVIE\SOURCE\REPOS\VKMASSIVE\BUILD\RELEASE\OBJ\VK-MASSIVE\XY_RECT.OBJ|C:\USERS\XAVIE\SOURCE\REPOS\VKMASSIVE\BUILD\RELEASE\OBJ\VK-MASSIVE\XZ_RECT.OBJ|C:\USERS\XAVIE\SOURCE\REPOS\VKMASSIVE\BUILD\RELEASE\OBJ\VK-MASSIVE\YZ_RECT.OBJ
/OUT:"C:\USERS\XAVIE\SOURCE\REPOS\VKMASSIVE\BUILD\RELEASE\VK-MASSIVE.NODE" /INCREMENTAL:NO /NOLOGO KERNEL32.LIB USER32.LIB GDI32.LIB WINSPOOL.LIB COMDLG32.LIB ADVAPI32.LIB SHELL32.LIB OLE32.LIB OLEAUT32.LIB UUID.LIB ODBC32.LIB DELAYIMP.LIB "C:\\USERS\\XAVIE\\.ELECTRON-GYP\\8.0.0\\X64\\NODE.LIB" "..\VULKAN_ADDON\CPP_LIBS\VULKAN\VULKAN-1.LIB" ..\VULKAN_ADDON\CPP_LIBS\VULKAN\VKLAYER_UTILS.LIB ..\VULKAN_ADDON\CPP_LIBS\VULKAN\SHADERC_COMBINED.LIB ..\VULKAN_ADDON\CPP_LIBS\GLFW\GLFW3DLL.LIB ..\VULKAN_ADDON\CPP_LIBS\GLFW\GLFW3.LIB DELAYIMP.LIB /DELAYLOAD:NODE.EXE /MANIFEST /MANIFESTUAC:"level='asInvoker' uiAccess='false'" /manifest:embed /DEBUG /PDB:"C:\USERS\XAVIE\SOURCE\REPOS\VKMASSIVE\BUILD\RELEASE\VK-MASSIVE.PDB" /OPT:REF /OPT:ICF /TLBID:1 /DYNAMICBASE /NXCOMPAT /MACHINE:X64 /ignore:4199 /LTCG:INCREMENTAL /DLL "RELEASE\OBJ\VK-MASSIVE\OFBX.OBJ"
"RELEASE\OBJ\VK-MASSIVE\MINIZ.OBJ"
"RELEASE\OBJ\VK-MASSIVE\AABB.OBJ"
"RELEASE\OBJ\VK-MASSIVE\BUFFER.OBJ"
"RELEASE\OBJ\VK-MASSIVE\BVHNODE.OBJ"
"RELEASE\OBJ\VK-MASSIVE\CAMERA.OBJ"
"RELEASE\OBJ\VK-MASSIVE\CHECKERTEXTURE.OBJ"
"RELEASE\OBJ\VK-MASSIVE\CONSTANTTEXTURE.OBJ"
"RELEASE\OBJ\VK-MASSIVE\DESCRIPTORSERVICE.OBJ"
"RELEASE\OBJ\VK-MASSIVE\DEVICE.OBJ"
"RELEASE\OBJ\VK-MASSIVE\DIELECTRIC.OBJ"
"RELEASE\OBJ\VK-MASSIVE\DIFFUSELIGHT.OBJ"
"RELEASE\OBJ\VK-MASSIVE\HITTABLE.OBJ"
"RELEASE\OBJ\VK-MASSIVE\HITTABLELIST.OBJ"
"RELEASE\OBJ\VK-MASSIVE\IMAGESERVICE.OBJ"
"RELEASE\OBJ\VK-MASSIVE\IMAGETEXTURE.OBJ"
"RELEASE\OBJ\VK-MASSIVE\MAIN.OBJ"
"RELEASE\OBJ\VK-MASSIVE\MATERIAL.OBJ"
"RELEASE\OBJ\VK-MASSIVE\MODEL.OBJ"
"RELEASE\OBJ\VK-MASSIVE\MODELFACTORY.OBJ"
"RELEASE\OBJ\VK-MASSIVE\MODELLOADER.OBJ"
"RELEASE\OBJ\VK-MASSIVE\NODE.OBJ"
"RELEASE\OBJ\VK-MASSIVE\QUEUEFAMILYINDICES.OBJ"
"RELEASE\OBJ\VK-MASSIVE\RAY.OBJ"
"RELEASE\OBJ\VK-MASSIVE\RTTRIANGLE.OBJ"
"RELEASE\OBJ\VK-MASSIVE\SCENEGRAPH.OBJ"
"RELEASE\OBJ\VK-MASSIVE\SPHERE.OBJ"
"RELEASE\OBJ\VK-MASSIVE\SWAPCHAIN.OBJ"
"RELEASE\OBJ\VK-MASSIVE\TRANSFORMATION.OBJ"
"RELEASE\OBJ\VK-MASSIVE\UTILS.OBJ"
"RELEASE\OBJ\VK-MASSIVE\UUIDFACTORY.OBJ"
"RELEASE\OBJ\VK-MASSIVE\VERTEX.OBJ"
"RELEASE\OBJ\VK-MASSIVE\VIEWPORT.OBJ"
"RELEASE\OBJ\VK-MASSIVE\XY_RECT.OBJ"
"RELEASE\OBJ\VK-MASSIVE\XZ_RECT.OBJ"
"RELEASE\OBJ\VK-MASSIVE\YZ_RECT.OBJ"
"RELEASE\OBJ\VK-MASSIVE\WIN_DELAY_LOAD_HOOK.OBJ"
