^C:\Users\Xavie\source\repos\vkMassive\build\vk-massive.vcxproj
C:\Users\Xavie\source\repos\vkMassive\build\Release\vk-massive.lib
C:\Users\Xavie\source\repos\vkMassive\build\Release\vk-massive.exp
C:\Users\Xavie\source\repos\vkMassive\build\Release\vk-massive.ipdb
C:\Users\Xavie\source\repos\vkMassive\build\Release\vk-massive.iobj
